…
## Examples

``` r
# Examples that hit the live NYC Open Data API are wrapped so CRAN checks
# do not fail when the network is unavailable or slow.
# \donttest{
if (curl::has_internet()) {
  # Quick example (fetch 2 rows)
  small_sample <- nyc_311(limit = 2)
  small_sample

  nyc_311(filters = list(agency = "NYPD", city = "BROOKLYN"))
}
#> # A tibble: 10,000 × 37
#>    unique_key created_date          agency agency_name complaint_type descriptor
#>    <chr>      <chr>                 <chr>  <chr>       <chr>          <chr>     
#>  1 67613985   2026-01-26T02:06:05.… NYPD   New York C… Noise - Resid… Banging/P…
#>  2 67609553   2026-01-26T02:02:09.… NYPD   New York C… Noise - Resid… Banging/P…
#>  3 67610990   2026-01-26T01:58:58.… NYPD   New York C… Illegal Parki… Blocked H…
#>  4 67615428   2026-01-26T01:56:49.… NYPD   New York C… Noise - Resid… Banging/P…
#>  5 67609568   2026-01-26T01:48:16.… NYPD   New York C… Noise - Resid… Loud Musi…
#>  6 67612476   2026-01-26T01:47:10.… NYPD   New York C… Noise - Resid… Loud Musi…
#>  7 67606570   2026-01-26T01:41:32.… NYPD   New York C… Noise - Resid… Banging/P…
#>  8 67612480   2026-01-26T01:33:28.… NYPD   New York C… Noise - Stree… Loud Musi…
#>  9 67616954   2026-01-26T01:32:45.… NYPD   New York C… Noise - Resid… Loud Musi…
#> 10 67612438   2026-01-26T01:28:42.… NYPD   New York C… Blocked Drive… No Access 
#> # ℹ 9,990 more rows
#> # ℹ 31 more variables: location_type <chr>, incident_zip <chr>,
#> #   incident_address <chr>, street_name <chr>, cross_street_1 <chr>,
#> #   cross_street_2 <chr>, intersection_street_1 <chr>,
#> #   intersection_street_2 <chr>, address_type <chr>, city <chr>,
#> #   landmark <chr>, status <chr>, community_board <chr>,
#> #   council_district <chr>, police_precinct <chr>, bbl <chr>, borough <chr>, …
…
