…
## Examples

``` r
# Examples that hit the live NYC Open Data API are wrapped so CRAN checks
# do not fail when the network is unavailable or slow.
# \donttest{
if (curl::has_internet()) {
  # Quick example (fetch 2 rows)
  small_sample <- nyc_motor_vehicle_collisions_crashes(limit = 2)
  small_sample

  nyc_motor_vehicle_collisions_crashes(filters = list(borough = "BROOKLYN"))
}
#> # A tibble: 10,000 × 31
#>    crash_date      crash_time borough zip_code latitude longitude on_street_name
#>    <chr>           <chr>      <chr>   <chr>    <chr>    <chr>     <chr>         
#>  1 2026-01-23T00:… 5:05       BROOKL… 11233    40.6772… -73.92823 ATLANTIC AVE  
#>  2 2026-01-23T00:… 16:20      BROOKL… 11213    40.6691… -73.9299  NA            
#>  3 2026-01-23T00:… 0:55       BROOKL… 11223    40.5991… -73.97471 AVENUE T      
#>  4 2026-01-23T00:… 18:07      BROOKL… 11221    40.6922… -73.93091 MALCOLM X BLVD
#>  5 2026-01-23T00:… 23:03      BROOKL… 11236    40.63063 -73.8990… AVENUE N      
#>  6 2026-01-23T00:… 16:13      BROOKL… 11219    40.62677 -73.99354 59 ST         
#>  7 2026-01-23T00:… 16:15      BROOKL… 11213    40.6643… -73.93154 UTICA AVE     
#>  8 2026-01-23T00:… 17:36      BROOKL… 11222    40.7289… -73.95066 CALYER ST     
#>  9 2026-01-23T00:… 12:36      BROOKL… 11205    40.69657 -73.9584… PARK AVE      
#> 10 2026-01-23T00:… 8:00       BROOKL… 11216    40.6697… -73.94773 EASTERN PKWY  
#> # ℹ 9,990 more rows
#> # ℹ 24 more variables: off_street_name <chr>, number_of_persons_injured <chr>,
#> #   number_of_persons_killed <chr>, number_of_pedestrians_injured <chr>,
#> #   number_of_pedestrians_killed <chr>, number_of_cyclist_injured <chr>,
#> #   number_of_cyclist_killed <chr>, number_of_motorist_injured <chr>,
#> #   number_of_motorist_killed <chr>, contributing_factor_vehicle_1 <chr>,
#> #   contributing_factor_vehicle_2 <chr>, collision_id <chr>, …
…
